<?xml version="1.0" encoding="utf-8"?>
<!-- Generator: Adobe Illustrator 21.1.0, SVG Export Plug-In . SVG Version: 6.00 Build 0)  -->
<svg version="1.1" id="Layer_1" xmlns="http://www.w3.org/2000/svg" xmlns:xlink="http://www.w3.org/1999/xlink" x="0px" y="0px"
	 viewBox="0 0 250 250" style="enable-background:new 0 0 250 250;" xml:space="preserve">
<style type="text/css">
	.st0{fill:none;stroke:#E2340D;stroke-width:6;stroke-linecap:round;stroke-miterlimit:10;}
	.st1{fill:none;stroke:#E2340D;stroke-width:6;stroke-linecap:round;stroke-linejoin:round;stroke-miterlimit:6;}
</style>
<g>
	<g id="Layer_9_2_">
		<line class="st0" x1="200.1" y1="166.5" x2="54.7" y2="166.5"/>
		<path class="st0" d="M54.7,166.5c0,9.5,5,17.3,11.3,17.3"/>
		<path class="st0" d="M200.1,166.5c0,9.5-5,17.3-11.3,17.3"/>
		<line class="st0" x1="67" y1="183.7" x2="188.1" y2="183.7"/>
	</g>
	<g id="Layer_6_2_">
		<g>
			<path class="st0" d="M60,124.4c11.4,0,11.4,7.4,22.7,7.4s11.4-7.4,22.7-7.4s11.4,7.4,22.7,7.4c11.4,0,11.4-7.4,22.7-7.4
				c11.4,0,11.4,7.4,22.7,7.4c11.3,0,11.4-7.4,22.7-7.4"/>
		</g>
	</g>
	<g id="Layer_5_2_">
		<path class="st0" d="M195.5,156.4H59.3c-4.1,0-7.5-3.3-7.5-7.5l0,0c0-4.2,3.4-7.5,7.5-7.5h136.2c4.1,0,7.5,3.3,7.5,7.5l0,0
			C203,153,199.8,156.4,195.5,156.4z"/>
	</g>
	<g id="Layer_4_3_">
		<line class="st0" x1="56.3" y1="115.5" x2="198.7" y2="115.5"/>
		<path class="st0" d="M56.3,115.5C68.7,86,98,66.9,129.7,67.9c30,0.9,57.2,19.5,69,47.6"/>
	</g>
</g>
<line class="st0" x1="101.7" y1="86.2" x2="110.3" y2="83.9"/>
<line class="st0" x1="139.2" y1="82.9" x2="147.6" y2="79.9"/>
<line class="st0" x1="117.6" y1="77.1" x2="126.4" y2="77.1"/>
<line class="st0" x1="125.3" y1="86.3" x2="134" y2="88.3"/>
<path class="st1" d="M188.8,220.6h-124c-18,0-32.8-14.8-32.8-32.8v-124C32,45.8,46.8,31,64.8,31h124c18,0,32.8,14.8,32.8,32.8v124
	C221.6,205.9,206.9,220.6,188.8,220.6z"/>
</svg>
