<?xml version="1.0" encoding="utf-8"?>
<!-- Generator: Adobe Illustrator 21.1.0, SVG Export Plug-In . SVG Version: 6.00 Build 0)  -->
<svg version="1.1" id="Layer_1" xmlns="http://www.w3.org/2000/svg" xmlns:xlink="http://www.w3.org/1999/xlink" x="0px" y="0px"
	 viewBox="0 0 250 250" style="enable-background:new 0 0 250 250;" xml:space="preserve">
<style type="text/css">
	.st0{fill:none;stroke:#E2340D;stroke-width:5;stroke-linecap:round;stroke-miterlimit:10;}
	.st1{fill:none;stroke:#E2340D;stroke-width:5;stroke-linecap:round;stroke-linejoin:round;stroke-miterlimit:6;}
</style>
<path class="st0" d="M126.3,184c-42.3,0.9-57.7-32.9-57.7-73.5"/>
<path class="st0" d="M184.1,110.5c0,40.6-16.1,73.4-57.7,73.5"/>
<line class="st0" x1="68.7" y1="110.5" x2="184.1" y2="110.5"/>
<path class="st0" d="M199.6,147.7c-0.2,9.1-14.3,8.1-23.6,7.8"/>
<path class="st0" d="M199.6,147.7l-0.1-28.1c0-1.5-1-2.8-2.5-3.1"/>
<line class="st0" x1="196.9" y1="116.6" x2="183.9" y2="116.6"/>
<g>
	<path class="st0" d="M145.4,67.8c0,5.4-12.3,5.4-12.3,10.7c0,5.4,12.3,5.4,12.3,10.7s-12.3,5.4-12.3,10.7"/>
</g>
<g>
	<path class="st0" d="M119.6,61.7c0,5.4-12.3,5.4-12.3,10.7c0,5.4,12.3,5.4,12.3,10.7c0,5.3-12.3,5.4-12.3,10.7"/>
</g>
<path class="st1" d="M192.8,219.6h-124c-18,0-32.8-14.8-32.8-32.8v-124C36,44.8,50.8,30,68.8,30h124c18,0,32.8,14.8,32.8,32.8v124
	C225.6,204.9,210.9,219.6,192.8,219.6z"/>
</svg>
